<?xml version="1.0" encoding="utf-8"?>
<!-- Generator: Adobe Illustrator 22.1.0, SVG Export Plug-In . SVG Version: 6.00 Build 0)  -->
<svg version="1.1" id="Layer_1" xmlns="http://www.w3.org/2000/svg" xmlns:xlink="http://www.w3.org/1999/xlink" x="0px" y="0px"
	 width="300.7px" height="300.7px" viewBox="0 0 300.7 300.7" style="enable-background:new 0 0 300.7 300.7;" xml:space="preserve"
	>
<style type="text/css">
	.st0{fill:#C24868;}
	.st1{fill:#FFFFFF;}
</style>
<g>
	<path class="st0" d="M150.4,52.8c53.8,0,97.6,43.8,97.6,97.6c0,12.1-2.2,23.7-6.3,34.4l45,29.1c9-19.3,14.1-40.7,14.1-63.4
		C300.7,67.3,233.4,0,150.4,0C104.9,0,64.2,20.3,36.7,52.2l45,29.1C99.3,63.7,123.5,52.8,150.4,52.8z"/>
	<path d="M24.2,68.8L24.2,68.8L24.2,68.8C8.9,92.3,0,120.3,0,150.4c0,83,67.3,150.4,150.4,150.4c52.9,0,99.4-27.4,126.2-68.8
		L24.2,68.8z"/>
	<polygon points="276.6,232 265.1,224.5 276.6,232 	"/>
</g>
</svg>
